[
    {
        "lastupdated": "2019-07-10",
        "page": 6,
        "pages": 6,
        "per_page": 50,
        "sourceid": "2",
        "total": 264
    },
    [
        {
            "country": {
                "id": "UA",
                "value": "Ukraine"
            },
            "countryiso3code": "UKR",
            "date": "2018",
            "decimal": 0,
            "indicator": {
                "id": "CM.MKT.LCAP.CD",
                "value": "Market capitalization of listed domestic companies (current US$)"
            },
            "obs_status": "",
            "unit": "",
            "value": 4415440000
        },
        {
            "country": {
                "id": "AE",
                "value": "United Arab Emirates"
            },
            "countryiso3code": "ARE",
            "date": "2018",
            "decimal": 0,
            "indicator": {
                "id": "CM.MKT.LCAP.CD",
                "value": "Market capitalization of listed domestic companies (current US$)"
            },
            "obs_status": "",
            "unit": "",
            "value": 235451373160.83
        },
        {
            "country": {
                "id": "GB",
                "value": "United Kingdom"
            },
            "countryiso3code": "GBR",
            "date": "2018",
            "decimal": 0,
            "indicator": {
                "id": "CM.MKT.LCAP.CD",
                "value": "Market capitalization of listed domestic companies (current US$)"
            },
            "obs_status": "",
            "unit": "",
            "value": null
        },
        {
            "country": {
                "id": "US",
                "value": "United States"
            },
            "countryiso3code": "USA",
            "date": "2018",
            "decimal": 0,
            "indicator": {
                "id": "CM.MKT.LCAP.CD",
                "value": "Market capitalization of listed domestic companies (current US$)"
            },
            "obs_status": "",
            "unit": "",
            "value": 30436313050000
        },
        {
            "country": {
                "id": "UY",
                "value": "Uruguay"
            },
            "countryiso3code": "URY",
            "date": "2018",
            "decimal": 0,
            "indicator": {
                "id": "CM.MKT.LCAP.CD",
                "value": "Market capitalization of listed domestic companies (current US$)"
            },
            "obs_status": "",
            "unit": "",
            "value": null
        },
        {
            "country": {
                "id": "UZ",
                "value": "Uzbekistan"
            },
            "countryiso3code": "UZB",
            "date": "2018",
            "decimal": 0,
            "indicator": {
                "id": "CM.MKT.LCAP.CD",
                "value": "Market capitalization of listed domestic companies (current US$)"
            },
            "obs_status": "",
            "unit": "",
            "value": null
        },
        {
            "country": {
                "id": "VU",
                "value": "Vanuatu"
            },
            "countryiso3code": "VUT",
            "date": "2018",
            "decimal": 0,
            "indicator": {
                "id": "CM.MKT.LCAP.CD",
                "value": "Market capitalization of listed domestic companies (current US$)"
            },
            "obs_status": "",
            "unit": "",
            "value": null
        },
        {
            "country": {
                "id": "VE",
                "value": "Venezuela, RB"
            },
            "countryiso3code": "VEN",
            "date": "2018",
            "decimal": 0,
            "indicator": {
                "id": "CM.MKT.LCAP.CD",
                "value": "Market capitalization of listed domestic companies (current US$)"
            },
            "obs_status": "",
            "unit": "",
            "value": null
        },
        {
            "country": {
                "id": "VN",
                "value": "Vietnam"
            },
            "countryiso3code": "VNM",
            "date": "2018",
            "decimal": 0,
            "indicator": {
                "id": "CM.MKT.LCAP.CD",
                "value": "Market capitalization of listed domestic companies (current US$)"
            },
            "obs_status": "",
            "unit": "",
            "value": "132652999577.476"
        },
        {
            "country": {
                "id": "VI",
                "value": "Virgin Islands (U.S.)"
            },
            "countryiso3code": "VIR",
            "date": "2018",
            "decimal": 0,
            "indicator": {
                "id": "CM.MKT.LCAP.CD",
                "value": "Market capitalization of listed domestic companies (current US$)"
            },
            "obs_status": "",
            "unit": "",
            "value": null
        },
        {
            "country": {
                "id": "PS",
                "value": "West Bank and Gaza"
            },
            "countryiso3code": "PSE",
            "date": "2018",
            "decimal": 0,
            "indicator": {
                "id": "CM.MKT.LCAP.CD",
                "value": "Market capitalization of listed domestic companies (current US$)"
            },
            "obs_status": "",
            "unit": "",
            "value": 3734920000
        },
        {
            "country": {
                "id": "YE",
                "value": "Yemen, Rep."
            },
            "countryiso3code": "YEM",
            "date": "2018",
            "decimal": 0,
            "indicator": {
                "id": "CM.MKT.LCAP.CD",
                "value": "Market capitalization of listed domestic companies (current US$)"
            },
            "obs_status": "",
            "unit": "",
            "value": null
        },
        {
            "country": {
                "id": "ZM",
                "value": "Zambia"
            },
            "countryiso3code": "ZMB",
            "date": "2018",
            "decimal": 0,
            "indicator": {
                "id": "CM.MKT.LCAP.CD",
                "value": "Market capitalization of listed domestic companies (current US$)"
            },
            "obs_status": "",
            "unit": "",
            "value": null
        },
        {
            "country": {
                "id": "ZW",
                "value": "Zimbabwe"
            },
            "countryiso3code": "ZWE",
            "date": "2018",
            "decimal": 0,
            "indicator": {
                "id": "CM.MKT.LCAP.CD",
                "value": "Market capitalization of listed domestic companies (current US$)"
            },
            "obs_status": "",
            "unit": "",
            "value": null
        }
    ]
]
